go 1.22

module gitlab.com/NorwegianLanguageLearning/heimdallr

require (
	github.com/BurntSushi/toml v0.3.1
	github.com/bwmarrin/discordgo v0.23.2
	github.com/docopt/docopt-go v0.0.0-20180111231733-ee0de3bc6815
	github.com/google/shlex v0.0.0-20191202100458-e7afc7fbc510
	github.com/pkg/errors v0.9.1
	modernc.org/sqlite v1.29.2
)

require (
	github.com/dustin/go-humanize v1.0.1 // indirect
	github.com/google/uuid v1.3.0 // indirect
	github.com/gorilla/websocket v1.4.0 // indirect
	github.com/hashicorp/golang-lru/v2 v2.0.7 // indirect
	github.com/mattn/go-isatty v0.0.16 // indirect
	github.com/ncruces/go-strftime v0.1.9 // indirect
	github.com/remyoudompheng/bigfft v0.0.0-20230129092748-24d4a6f8daec // indirect
	golang.org/x/crypto v0.0.0-20181030102418-4d3f4d9ffa16 // indirect
	golang.org/x/sys v0.16.0 // indirect
	modernc.org/gc/v3 v3.0.0-20240107210532-573471604cb6 // indirect
	modernc.org/libc v1.41.0 // indirect
	modernc.org/mathutil v1.6.0 // indirect
	modernc.org/memory v1.7.2 // indirect
	modernc.org/strutil v1.2.0 // indirect
	modernc.org/token v1.1.0 // indirect
)
